Getting Started • tidyposterior
…
Assuming that our assumptions are appropriate, one of the main things that we’d like to get out of the object are samples of the posterior distributions for the performance metrics (per modeling method). The tidy() method will produce a data frame with such samples:

tidy(rset_mod, seed = 3)

## # Posterior samples of performance
## # A tibble: 25,000 x 2
##    model        posterior
##    <chr>            <dbl>
##  1 spatial_sign     0.866
##  2 spatial_sign     0.864
##  3 spatial_sign     0.863
##  4 spatial_sign     0.870
##  5 spatial_sign     0.863
##  6 spatial_sign     0.880
##  7 spatial_sign     0.874
##  8 spatial_sign     0.876
##  9 spatial_sign     0.873
## 10 spatial_sign     0.876
## # … with 24,990 more rows
…
