Getting Started • tidyposterior
…
Assuming that our assumptions are appropriate, one of the main things
that we’d like to get out of the object are samples of the posterior
distributions for the performance metrics (per modeling method). The
tidy() method will produce a data frame with such
samples:

tidy(rset_mod, seed = 3)

## # Posterior samples of performance
## # A tibble: 25,000 × 2
##    model        posterior
##    <chr>            <dbl>
##  1 spatial_sign     0.871
##  2 splines          0.883
##  3 spatial_sign     0.889
##  4 splines          0.914
##  5 spatial_sign     0.869
##  6 splines          0.884
##  7 spatial_sign     0.862
##  8 splines          0.899
##  9 spatial_sign     0.871
## 10 splines          0.894
## # … with 24,990 more rows
…
