Bayesian Analysis of Resampling Statistics — perf_mod • tidyposterior
…
   logistic_roc <-
     collect_metrics(logistic_reg_glm_res, summarize = FALSE) %>%
     dplyr::filter(.metric == "roc_auc") %>%
     dplyr::select(id, logistic = .estimate)

   mars_roc <-
     collect_metrics(mars_earth_res, summarize = FALSE) %>%
     dplyr::filter(.metric == "roc_auc") %>%
     dplyr::select(id, mars = .estimate)

   resamples_df <- full_join(logistic_roc, mars_roc, by = "id")
   resamples_df

   ## # A tibble: 10 x 3
   ##   id     logistic  mars
   ##   <chr>     <dbl> <dbl>
   ## 1 Fold01    0.908 0.875
   ## 2 Fold02    0.904 0.917
   ## 3 Fold03    0.924 0.938
   ## 4 Fold04    0.881 0.881
   ## 5 Fold05    0.863 0.864
   ## 6 Fold06    0.893 0.889
   ## # … with 4 more rows
…
